<svg xmlns="http://www.w3.org/2000/svg" viewBox="0 0 40 40" width="80" height="80">
	<style>
		tspan { white-space:pre }
		.shp0 { fill: #ff7900 } 
		.shp1 { fill: #ff8500 } 
		.shp2 { fill: #ff0000 } 
	</style>
	<g id="Delay">
	</g>
	<g id="App_integration">
	</g>
	<g id="Active_directory">
	</g>
	<g id="Record">
	</g>
	<g id="Clipboard">
	</g>
	<g id="Comment">
	</g>
	<g id="Database">
	</g>
	<g id="Wait">
	</g>
	<g id="Web_service_-_soap">
	</g>
	<g id="Web_service_-_rest">
	</g>
	<g id="Service">
	</g>
	<g id="Keyboard">
	</g>
	<g id="SNMP">
	</g>
	<g id="OCR">
	</g>
	<g id="Launch_site">
	</g>
	<g id="xml">
	</g>
	<g id="OCR_1_">
	</g>
	<g id="Layer">
		<g id="Layer">
			<path id="CSV " fill="#000000" d="M6.16 26.07L7.16 26.07Q8.54 26.07 8.54 25.1L8.54 23.48L11.85 23.48L11.85 25.41Q11.85 26.62 10.61 27.31Q9.47 28 7.82 28L5.51 28Q2.85 28 1.78 26.52Q1.44 26.03 1.44 25.41L1.44 16.14Q1.44 14.97 2.61 14.28Q3.82 13.55 5.51 13.55L7.82 13.55Q9.47 13.55 10.64 14.24Q11.85 14.93 11.85 16.14L11.85 18.07L8.54 18.07L8.54 16.45Q8.54 15.48 7.16 15.48L6.16 15.48Q4.75 15.48 4.75 16.45L4.75 25.1Q4.75 26.07 6.16 26.07ZM21.68 25.1L21.68 21.97Q21.68 21 20.26 21L18.23 21Q15.54 21 14.51 19.55Q14.16 19.07 14.16 18.45L14.16 16.14Q14.16 14.97 15.33 14.28Q16.54 13.55 18.23 13.55L20.92 13.55Q22.61 13.55 23.78 14.24Q24.99 14.93 24.99 16.14L24.99 17.55L21.68 17.55L21.68 16.45Q21.68 15.48 20.26 15.48L18.89 15.48Q17.47 15.48 17.47 16.45L17.47 18.1Q17.47 19.14 18.89 19.07L20.92 19.07Q22.61 19.07 23.78 19.76Q24.99 20.45 24.99 21.66L24.99 25.41Q24.99 26.62 23.75 27.31Q22.61 28 20.92 28L18.23 28Q15.57 28 14.51 26.52Q14.16 26.03 14.16 25.41L14.16 23.48L17.47 23.48L17.47 25.1Q17.47 26.07 18.89 26.07L20.26 26.07Q21.68 26.07 21.68 25.1ZM35.02 28L31.68 28L26.61 13.55L29.92 13.55L33.33 23.28L36.78 13.55L40.09 13.55L35.02 28Z" />
			<path id="Layer 1" class="shp0" d="M2.62 10.51L2.54 5.51L27.05 5.13L26.97 0.13L40.08 7.43L27.2 15.13L27.12 10.13L2.62 10.51Z" />
			<path id="Shape 2" class="shp1" d="M39.02 30.84L38.98 35.84L13.07 35.68L13.03 40.68L0.08 33.09L13.13 25.68L13.1 30.68L39.02 30.84Z" />
		</g>
	</g>
	<g id="window">
	</g>
	<g id="OPERATIONS">
	</g>
	<g id="VARIABLES">
	</g>
	<g id="Javascript">
	</g>
	<g id="JAva">
	</g>
	<g id="VBS">
	</g>
	<g id="Python">
	</g>
	<g id="Terminal">
	</g>
	<g id="Sound">
	</g>
	<g id="Screen_cap">
	</g>
	<g id="Print">
	</g>
	<g id="Prompt">
	</g>
	<g id="Read">
	</g>
	<g id="SAP_1_">
	</g>
	<g id="PGP">
	</g>
	<g id="System">
	</g>
	<g id="PDF">
	</g>
	<g id="command">
	</g>
	<g id="Message_box">
	</g>
	<g id="FTP">
	</g>
	<g id="Folder">
	</g>
	<g id="File">
	</g>
	<g id="Excel">
		<path id="Shape 1" class="shp2" d="" />
	</g>
	<g id="device">
	</g>
	<g id="email">
	</g>
</svg>